Division,WeightClassKg,Place,Name,Team,BodyweightKg,Best3SquatKg,Best3BenchKg,Best3DeadliftKg,TotalKg,Equipment,Event,Sex,BirthDate
Boys,51.71,1,Tomas Elizondo,San Diego,51.62,142.88,90.72,161.03,394.63,Single-ply,SBD,M,
Boys,51.71,2,Chris Edwards,Aransas Pass,51.26,129.27,86.18,142.88,358.34,Single-ply,SBD,M,
Boys,51.71,3,Josiah Maldonado,Robstown,48.35,138.35,63.5,142.88,344.73,Single-ply,SBD,M,
Boys,51.71,4,Noah Estrada,Agua Dulce,49.44,106.59,58.97,129.27,294.84,Single-ply,SBD,M,
Boys,51.71,5,Justin Bronaugh,Skidmore-Tynan,51.07,102.06,54.43,111.13,267.62,Single-ply,SBD,M,
Boys,55.79,1,David Perez,Ben Bolt-Palito Blanco,55.34,165.56,97.52,167.83,430.91,Single-ply,SBD,M,
Boys,55.79,2,Alex Vela,Corpus Christi Calallen,55.07,158.76,90.72,170.1,419.57,Single-ply,SBD,M,
Boys,55.79,3,Josh Trevino,Corpus Christi West Oso,55.79,163.29,83.91,165.56,412.77,Single-ply,SBD,M,
Boys,55.79,4,Michael Benavides,Agua Dulce,54.11,142.88,81.65,145.15,369.68,Single-ply,SBD,M,
Boys,55.79,5,Ryan Perez,Ben Bolt-Palito Blanco,55.34,136.08,81.65,142.88,360.61,Single-ply,SBD,M,
Boys,55.79,6,Rigo Rosales,Robstown,54.07,120.2,72.57,158.76,351.53,Single-ply,SBD,M,
Boys,55.79,7,Adam Garcia #2,Freer,54.7,95.25,68.04,99.79,263.08,Single-ply,SBD,M,
Boys,59.87,1,Deonte Duhart,Ingleside,59.6,170.1,99.79,183.7,453.59,Single-ply,SBD,M,
Boys,59.87,2,Ray Flores,Orange Grove,58.69,154.22,102.06,158.76,415.04,Single-ply,SBD,M,
Boys,59.87,3,Julian Cadena,Corpus Christi Calallen,59.06,145.15,102.06,167.83,415.04,Single-ply,SBD,M,
Boys,59.87,4,Juan Lopez,Robstown,59.87,147.42,104.33,163.29,415.04,Single-ply,SBD,M,
Boys,59.87,5,Ezra Salazar,Corpus Christi Tuloso-Midway,59.42,154.22,83.91,151.95,390.09,Single-ply,SBD,M,
Boys,59.87,6,Jacob Perez #6,Freer,59.42,127.01,68.04,154.22,349.27,Single-ply,SBD,M,
Boys,59.87,7,Steven Valdez,Corpus Christi Tuloso-Midway,59.87,117.93,90.72,113.4,322.05,Single-ply,SBD,M,
Boys,67.13,1,Gavin Chapa,Corpus Christi London,66.5,226.8,142.88,226.8,596.47,Single-ply,SBD,M,
Boys,67.13,2,Juan Vasquez #1,Corpus Christi Calallen,66.04,210.92,106.59,213.19,530.7,Single-ply,SBD,M,
Boys,67.13,3,Austin Mendez,San Diego,62.41,179.17,108.86,199.58,487.61,Single-ply,SBD,M,
Boys,67.13,4,Abel Cervantes,Sinton,66.32,176.9,104.33,190.51,471.74,Single-ply,SBD,M,
Boys,67.13,5,Luke Davis,Sinton,66.5,174.63,102.06,188.24,464.93,Single-ply,SBD,M,
Boys,67.13,6,Thomas Morin,San Diego,66.95,167.83,97.52,167.83,433.18,Single-ply,SBD,M,
Boys,67.13,7,Zach Smith #10,Orange Grove,66.41,154.22,88.45,183.7,426.38,Single-ply,SBD,M,
Boys,67.13,8,Cristian Robles,Corpus Christi Calallen,65.77,161.03,90.72,161.03,412.77,Single-ply,SBD,M,
Boys,67.13,9,Lorenzo Davila,Aransas Pass,65.05,142.88,97.52,167.83,408.23,Single-ply,SBD,M,
Boys,67.13,10,Brandon Guajardo,Freer,65.59,115.67,74.84,136.08,326.59,Single-ply,SBD,M,
Boys,67.13,DQ,Andrew Vasquez,Corpus Christi Calallen,66.04,201.85,,,,Single-ply,SBD,M,
Boys,74.84,1,Lee Bazan,San Diego,74.84,288.03,156.49,235.87,680.39,Single-ply,SBD,M,
Boys,74.84,2,Mat Mora,Corpus Christi Tuloso-Midway,74.3,249.48,147.42,238.14,635.03,Single-ply,SBD,M,
Boys,74.84,3,Chiso Nwampka,Corpus Christi Tuloso-Midway,74.84,210.92,154.22,244.94,610.08,Single-ply,SBD,M,
Boys,74.84,4,Logen Schanen,Skidmore-Tynan,72.39,188.24,111.13,226.8,526.17,Single-ply,SBD,M,
Boys,74.84,5,Adrian Bueno-Villa,Corpus Christi Calallen,72.48,192.78,104.33,219.99,517.1,Single-ply,SBD,M,
Boys,74.84,6,Adrian Perez,Robstown,71.76,167.83,104.33,181.44,453.59,Single-ply,SBD,M,
Boys,74.84,7,Javier Salas,Corpus Christi London,74.75,183.7,97.52,167.83,449.06,Single-ply,SBD,M,
Boys,74.84,8,Lukas Salaiz,San Diego,71.85,167.83,111.13,167.83,446.79,Single-ply,SBD,M,
Boys,74.84,9,Matthew Ortiz,Orange Grove,74.12,163.29,117.93,161.03,442.25,Single-ply,SBD,M,
Boys,74.84,10,Jerimiah Nino,Sinton,73.94,156.49,99.79,165.56,421.84,Single-ply,SBD,M,
Boys,74.84,11,Daniel Zuniga,Ingleside,67.86,145.15,88.45,165.56,399.16,Single-ply,SBD,M,
Boys,74.84,12,Jacob Richardson,Orange Grove,71.85,138.35,90.72,154.22,383.29,Single-ply,SBD,M,
Boys,74.84,13,Henry Engelking,Orange Grove,69.04,72.57,61.23,104.33,238.14,Single-ply,SBD,M,
Boys,82.1,1,Demetri Sanchez,Corpus Christi London,81.65,219.99,142.88,249.48,612.35,Single-ply,SBD,M,
Boys,82.1,2,Roberto Torres,Sinton,81.83,233.6,129.27,219.99,582.87,Single-ply,SBD,M,
Boys,82.1,3,Marcus Trejo,Sinton,82.1,226.8,115.67,226.8,569.26,Single-ply,SBD,M,
Boys,82.1,4,Cody Ceo,Ben Bolt-Palito Blanco,79.83,208.65,142.88,201.85,553.38,Single-ply,SBD,M,
Boys,82.1,5,Cody Mosevais,Orange Grove,81.65,188.24,142.88,210.92,542.04,Single-ply,SBD,M,
Boys,82.1,6,Alan Rodriguez,Corpus Christi Tuloso-Midway,80.01,199.58,131.54,190.51,521.63,Single-ply,SBD,M,
Boys,82.1,7,Elias Gonzalez,Sinton,81.37,188.24,120.2,208.65,517.1,Single-ply,SBD,M,
Boys,82.1,8,Jacob Charles,Corpus Christi London,77.29,190.51,111.13,204.12,505.76,Single-ply,SBD,M,
Boys,82.1,9,Gavin Gonzalez,Corpus Christi Tuloso-Midway,80.2,197.31,120.2,181.44,498.95,Single-ply,SBD,M,
Boys,82.1,10,Adrian Davila,Aransas Pass,81.65,165.56,133.81,170.1,469.47,Single-ply,SBD,M,
Boys,82.1,11,Jadon Sanchez,Ingleside,79.65,156.49,86.18,161.03,403.7,Single-ply,SBD,M,
Boys,82.1,12,Jaren Nava,Banquete,81.65,133.81,97.52,149.69,381.02,Single-ply,SBD,M,
Boys,82.1,13,Deven Beltran,Banquete,76.66,120.2,79.38,129.27,328.85,Single-ply,SBD,M,
Boys,82.1,14,Jaron Marshall,Corpus Christi Tuloso-Midway,81.74,174.63,113.4,,288.03,Single-ply,SB,M,
Boys,82.1,DQ,Eian Meza,Aransas Pass,80.56,,,,,Single-ply,SBD,M,
Boys,89.81,1,Trinidad Salazar,Corpus Christi Tuloso-Midway,83.82,183.7,111.13,206.38,501.22,Single-ply,SBD,M,
Boys,89.81,2,Tyler Gillium,San Diego,85,199.58,113.4,158.76,471.74,Single-ply,SBD,M,
Boys,89.81,3,John Guevara,Banquete,83.55,163.29,102.06,195.04,460.4,Single-ply,SBD,M,
Boys,89.81,4,Evan Eden,Corpus Christi Calallen,82.55,145.15,81.65,181.44,408.23,Single-ply,SBD,M,
Boys,89.81,5,Devin Bazan,Ingleside,89.81,115.67,83.91,138.35,337.93,Single-ply,SBD,M,
Boys,99.79,1,Marcos Gonzalez,Ben Bolt-Palito Blanco,99.52,265.35,167.83,231.33,664.51,Single-ply,SBD,M,
Boys,99.79,2,Jonathan Pena,San Diego,97.79,238.14,163.29,240.4,641.83,Single-ply,SBD,M,
Boys,99.79,3,Steve Peña #2,Robstown,98.16,233.6,161.03,219.99,614.62,Single-ply,SBD,M,
Boys,99.79,4,Jacob Castellanos,Corpus Christi Calallen,99.06,217.72,133.81,224.53,576.06,Single-ply,SBD,M,
Boys,99.79,5,Isaac Martinez,Corpus Christi Tuloso-Midway,98.16,222.26,127.01,201.85,551.11,Single-ply,SBD,M,
Boys,99.79,6,Santos Castillo,Agua Dulce,99.7,219.99,111.13,197.31,528.44,Single-ply,SBD,M,
Boys,99.79,7,Julio Loera,Sinton,94.98,195.04,124.74,192.78,512.56,Single-ply,SBD,M,
Boys,99.79,8,Ben Marcos,Ingleside,92.71,204.12,124.74,170.1,498.95,Single-ply,SBD,M,
Boys,99.79,9,Daniel Solorio,Banquete,94.35,190.51,108.86,190.51,489.88,Single-ply,SBD,M,
Boys,99.79,10,Austin Neil,Ingleside,97.07,179.17,86.18,170.1,435.45,Single-ply,SBD,M,
Boys,99.79,11,Edwin Aguilar,Robstown,96.8,161.03,90.72,151.95,403.7,Single-ply,SBD,M,
Boys,99.79,12,Roland Guerra,Agua Dulce,91.72,142.88,61.23,165.56,369.68,Single-ply,SBD,M,
Boys,99.79,13,Ivan Rangel,Corpus Christi Calallen,93.17,136.08,65.77,158.76,360.61,Single-ply,SBD,M,
Boys,99.79,14,Troy Wilson,Ingleside,95.07,129.27,83.91,138.35,351.53,Single-ply,SBD,M,
Boys,99.79,15,Cesar Carrezon,Corpus Christi West Oso,90.9,113.4,72.57,140.61,326.59,Single-ply,SBD,M,
Boys,99.79,16,Jake Torrez,Agua Dulce,92.8,124.74,56.7,140.61,322.05,Single-ply,SBD,M,
Boys,99.79,DQ,Joe Guevara,Banquete,91.26,142.88,90.72,,,Single-ply,SBD,M,
Boys,109.77,1,Lance Lopez,Orange Grove,109.68,281.23,174.63,215.46,671.32,Single-ply,SBD,M,
Boys,109.77,2,Brandon Rodriguez,Robstown,103.96,240.4,158.76,240.4,639.57,Single-ply,SBD,M,
Boys,109.77,3,AJ Obregon,Freer,106.41,201.85,133.81,149.69,485.34,Single-ply,SBD,M,
Boys,109.77,4,Landon Southern,Sinton,108.23,188.24,111.13,170.1,469.47,Single-ply,SBD,M,
Boys,109.77,5,John Enriquez,Corpus Christi Calallen,106.96,176.9,95.25,188.24,460.4,Single-ply,SBD,M,
Boys,109.77,6,Orlando Montalvo,Orange Grove,106.59,170.1,140.61,120.2,430.91,Single-ply,SBD,M,
Boys,109.77,7,Shawn Garza,Freer,107.23,158.76,99.79,142.88,401.43,Single-ply,SBD,M,
Boys,109.77,8,Cooper Kennermer,Agua Dulce,100.52,142.88,72.57,161.03,376.48,Single-ply,SBD,M,
Boys,109.77,DQ,Dylan Lageschulte,Corpus Christi Calallen,100.97,,,,,Single-ply,SBD,M,
Boys,109.77,DQ,Jesse Perez,Agua Dulce,99.88,181.44,102.06,,,Single-ply,SBD,M,
Boys,109.77,DQ,Mason Pena,Ben Bolt-Palito Blanco,107.95,226.8,,,,Single-ply,SBD,M,
Boys,109.77,DQ,Cory Upton,Aransas Pass,106.14,,,,,Single-ply,SBD,M,
Boys,109.77,DQ,Richard Alvarado,Aransas Pass,107.14,,,,,Single-ply,SBD,M,
Boys,109.77,DQ,Angel Hernandez #14,Robstown,103.87,,,,,Single-ply,SBD,M,
Boys,124.74,1,Cameron Roulston,Corpus Christi London,122.11,274.42,183.7,283.5,741.62,Single-ply,SBD,M,
Boys,124.74,2,Anthony Rogers,Ingleside,112.31,272.16,172.37,235.87,680.39,Single-ply,SBD,M,
Boys,124.74,3,John Cuevas #2,Skidmore-Tynan,119.66,226.8,142.88,188.24,557.92,Single-ply,SBD,M,
Boys,124.74,4,John Roriguez,Skidmore-Tynan,117.21,224.53,129.27,195.04,548.85,Single-ply,SBD,M,
Boys,124.74,5,Izaiah Botello,Orange Grove,113.13,199.58,138.35,208.65,546.58,Single-ply,SBD,M,
Boys,124.74,6,Mark Pena,Robstown,124.01,219.99,142.88,183.7,546.58,Single-ply,SBD,M,
Boys,124.74,7,James Gomez,Banquete,114.85,226.8,111.13,174.63,512.56,Single-ply,SBD,M,
Boys,124.74,8,Ventura Leal,Robstown,123.1,188.24,122.47,183.7,494.42,Single-ply,SBD,M,
Boys,124.74,9,Jose Gonzalez #9,San Diego,112.94,192.78,102.06,185.97,480.81,Single-ply,SBD,M,
Boys,124.74,10,Fabian Castilleja,Agua Dulce,123.65,199.58,106.59,149.69,455.86,Single-ply,SBD,M,
Boys,124.74,11,Jorge Guerra,San Diego,122.65,142.88,111.13,147.42,401.43,Single-ply,SBD,M,
Boys,124.74,DQ,Robert Kroen,Corpus Christi Tuloso-Midway,118.93,233.6,,,,Single-ply,SBD,M,
Boys,124.74,DQ,Elija Brown,Sinton,124.47,231.33,142.88,,,Single-ply,SBD,M,
Boys,124.74+,1,Leo Soliz,Corpus Christi Tuloso-Midway,130.82,294.84,183.7,256.28,734.82,Single-ply,SBD,M,
Boys,124.74+,2,Ruben Leal,Aransas Pass,140.7,233.6,213.19,226.8,673.58,Single-ply,SBD,M,
Boys,124.74+,3,Nate Martinez #4,Sinton,129.73,249.48,158.76,233.6,641.83,Single-ply,SBD,M,
Boys,124.74+,4,Arturo Gallegos III,Ingleside,140.8,235.87,115.67,197.31,548.85,Single-ply,SBD,M,
Boys,124.74+,5,Paul Cruz,Skidmore-Tynan,144.7,219.99,102.06,197.31,519.36,Single-ply,SBD,M,
Boys,124.74+,DQ,Declan McCarn,Skidmore-Tynan,138.44,,,,,Single-ply,SBD,M,
Boys,124.74+,DQ,Jody Martinez,Aransas Pass,146.42,,,,,Single-ply,SBD,M,
Boys,,NS,Ademar Garcia,Hebbronville,,,,,,Single-ply,SBD,M,
Boys,,NS,Austin Lopez,Robstown,,,,,,Single-ply,SBD,M,
Boys,,NS,Alex Gonzalez #3,Banquete,,,,,,Single-ply,SBD,M,
Boys,,NS,Cody Rosas,Robstown,,,,,,Single-ply,SBD,M,
Boys,,NS,Michael Lopez,Robstown,,,,,,Single-ply,SBD,M,
Boys,,NS,Rj Garcia,Freer,,,,,,Single-ply,SBD,M,
Boys,,NS,Chris Garcia #15,Ben Bolt-Palito Blanco,,,,,,Single-ply,SBD,M,
Boys,,NS,Asher Gonzalez,San Diego,,,,,,Single-ply,SBD,M,
Boys,,NS,Adrian Bear,San Diego,,,,,,Single-ply,SBD,M,
Boys,,NS,Marcus Gabriel,Skidmore-Tynan,,,,,,Single-ply,SBD,M,
Boys,,NS,Daniel Cantu,Corpus Christi West Oso,,,,,,Single-ply,SBD,M,
Boys,,NS,Anthony Ramirez,Corpus Christi West Oso,,,,,,Single-ply,SBD,M,
Boys,,NS,Nathan Reyes,Corpus Christi West Oso,,,,,,Single-ply,SBD,M,
Boys,,NS,Jorge De Los Santos,Corpus Christi West Oso,,,,,,Single-ply,SBD,M,
Boys,,NS,Sebastian Martinez,Corpus Christi West Oso,,,,,,Single-ply,SBD,M,
Boys,,NS,Exander Gamez,Sinton,,,,,,Single-ply,SBD,M,
Boys,,NS,Landon Powell,Corpus Christi London,,,,,,Single-ply,SBD,M,
Boys,,NS,Keegan Westmoreland,Skidmore-Tynan,,,,,,Single-ply,SBD,M,
Boys,,NS,Joe Guerra,Skidmore-Tynan,,,,,,Single-ply,SBD,M,
Boys,,NS,Aiden Massengill,Skidmore-Tynan,,,,,,Single-ply,SBD,M,
Boys,,NS,Chris Laughlin,Skidmore-Tynan,,,,,,Single-ply,SBD,M,
Boys,,NS,Robert Scadlock,Ingleside,,,,,,Single-ply,SBD,M,
Boys,,NS,Jonathan Conway,Agua Dulce,,,,,,Single-ply,SBD,M,
Boys,,NS,Lupe Garcia,Agua Dulce,,,,,,Single-ply,SBD,M,
Boys,,NS,Nemo Jacobo,Agua Dulce,,,,,,Single-ply,SBD,M,
