Division,WeightClassKg,Place,Name,Team,BodyweightKg,Best3SquatKg,Best3BenchKg,Best3DeadliftKg,TotalKg,Equipment,Event,Sex,BirthDate
Boys,55.79,1,Alex Salto,Manvel,53.98,102.06,74.84,122.47,299.37,Single-ply,SBD,M,
Boys,67.13,1,Luke Simbajon,Alvin Shadow Creek,67.13,124.74,79.38,156.49,360.61,Single-ply,SBD,M,
Boys,67.13,2,David Jimenez,Alvin Shadow Creek,65.77,104.33,81.65,158.76,344.73,Single-ply,SBD,M,
Boys,74.84,1,Junji Chen,Alvin Shadow Creek,73.94,183.7,115.67,206.38,505.76,Single-ply,SBD,M,
Boys,74.84,2,Wilhelm Angel Tampo,Alvin Shadow Creek,72.57,142.88,92.99,165.56,401.43,Single-ply,SBD,M,
Boys,74.84,3,Joshua Lockett,Alvin Shadow Creek,74.84,138.35,111.13,,249.48,Single-ply,SB,M,
Boys,82.1,1,LaMarkus Owens,Manvel,80.65,224.53,131.54,213.19,569.26,Single-ply,SBD,M,
Boys,82.1,2,Andrew Riley,Manvel,75.48,158.76,120.2,192.78,471.74,Single-ply,SBD,M,
Boys,82.1,3,Isaiah Llorens,Stafford,80.74,181.44,120.2,165.56,467.2,Single-ply,SBD,M,
Boys,89.81,1,Dylan Campbell,Alvin Shadow Creek,89.81,276.69,158.76,217.72,653.17,Single-ply,SBD,M,
Boys,89.81,2,DeMonte Seymore,Manvel,88.9,231.33,138.35,240.4,610.08,Single-ply,SBD,M,
Boys,89.81,3,Garrett Sassin,Alvin Shadow Creek,89.81,170.1,106.59,174.63,451.32,Single-ply,SBD,M,
Boys,99.79,1,Ricardo Medina,Manvel,99.34,190.51,117.93,233.6,542.04,Single-ply,SBD,M,
Boys,99.79,2,Nicholas Rideau,Stafford,92.99,165.56,97.52,183.7,446.79,Single-ply,SBD,M,
Boys,99.79,3,Zephaniah Uta,Stafford,94.35,136.08,124.74,183.7,444.52,Single-ply,SBD,M,
Boys,99.79,4,Brandon Jackson,Alvin Shadow Creek,99.34,199.58,,204.12,403.7,Single-ply,SD,M,
Boys,99.79,DQ,Christian Frigia,Stafford,96.43,,,,,Single-ply,SBD,M,
Boys,109.77,1,Chancellor Buford,Alvin Shadow Creek,108.41,240.4,154.22,278.96,673.58,Single-ply,SBD,M,
Boys,109.77,2,Jose Carrizales,Alvin Shadow Creek,109.77,201.85,117.93,206.38,526.17,Single-ply,SBD,M,
Boys,109.77,3,Elias Brooks,Manvel,105.96,213.19,102.06,183.7,498.95,Single-ply,SBD,M,
Boys,109.77,4,Jaric Woodley,Manvel,102.06,181.44,104.33,204.12,489.88,Single-ply,SBD,M,
Boys,109.77,5,Joshua Diz,Alvin Shadow Creek,109.77,176.9,124.74,165.56,467.2,Single-ply,SBD,M,
Boys,109.77,DQ,Edward Pena,Stafford,109.77,,,,,Single-ply,SBD,M,
Boys,124.74,1,Dylan Hughes,Alvin Shadow Creek,123.38,260.82,163.29,244.94,669.05,Single-ply,SBD,M,
Boys,124.74,2,Alex Williams #4,Manvel,111.58,183.7,142.88,206.38,532.97,Single-ply,SBD,M,
Boys,124.74,3,David Collins,Stafford,113.67,190.51,142.88,183.7,517.1,Single-ply,SBD,M,
Boys,124.74,4,Trevin Patt,Stafford,116.12,192.78,124.74,195.04,512.56,Single-ply,SBD,M,
Boys,124.74,5,Sebastian Carrier,Stafford,117.03,170.1,113.4,226.8,510.29,Single-ply,SBD,M,
Boys,124.74,6,Adrian Herrera #3,Stafford,112.94,181.44,104.33,124.74,410.5,Single-ply,SBD,M,
Boys,139.71,1,Xavier Potts,Manvel,125.19,206.38,136.08,229.06,571.53,Single-ply,SBD,M,
Boys,139.71,2,Jaden Edmonson,Manvel,131.54,204.12,113.4,222.26,539.77,Single-ply,SBD,M,
Boys,139.71,3,John Fletcher,Manvel,131.54,199.58,140.61,183.7,523.9,Single-ply,SBD,M,
Boys,139.71,4,Francisco Gonzalez-Elgueda,Alvin Shadow Creek,139.71,165.56,88.45,192.78,446.79,Single-ply,SBD,M,
Boys,139.71+,1,Devin Davis #2,Manvel,146.06,156.49,142.88,170.1,469.47,Single-ply,SBD,M,
Boys,,NS,Jonathon Whalen,Stafford,,,,,,Single-ply,SBD,M,
Boys,,NS,Nia Mack,Stafford,,,,,,Single-ply,SBD,M,
Boys,,NS,Braylon Rideau,Stafford,,,,,,Single-ply,SBD,M,
