Division,WeightClassKg,Place,Name,Team,BodyweightKg,Best3SquatKg,Best3BenchKg,Best3DeadliftKg,TotalKg,Equipment,Event,Sex
Boys,51.71,1,Jessie Jarmillo,Smithville,51.26,124.74,79.38,138.35,342.46,Single-ply,SBD,M
Boys,51.71,2,JoRey Gonzales,Austin Bowie,51.71,111.13,79.38,136.08,326.59,Single-ply,SBD,M
Boys,51.71,3,Mikal Underwood,Killeen Shoemaker,49.44,52.16,29.48,86.18,167.83,Single-ply,SBD,M
Boys,59.87,1,Drew Haas,Hallettsville,56.02,165.56,74.84,129.27,369.68,Single-ply,SBD,M
Boys,55.79,2,Will Meng,Liberty Hill,54.66,138.35,65.77,133.81,337.93,Single-ply,SBD,M
Boys,55.79,3,Luis Grijalva,Wallis Brazos,55.57,111.13,72.57,140.61,324.32,Single-ply,SBD,M
Boys,55.79,4,Creighton McFarin,Dripping Springs,55.57,122.47,58.97,129.27,310.71,Single-ply,SBD,M
Boys,55.79,5,Deontre Haynes,Killeen Shoemaker,52.62,97.52,61.23,115.67,274.42,Single-ply,SBD,M
Boys,55.79,6,Chris Martinez,Bastrop,54.43,108.86,61.23,102.06,272.16,Single-ply,SBD,M
Boys,59.87,1,Victor Aguilar,Caldwell,58.51,204.12,124.74,174.63,503.49,Single-ply,SBD,M
Boys,59.87,2,Michael Latapie,Palacios,59.87,165.56,122.47,172.37,460.4,Single-ply,SBD,M
Boys,59.87,3,Maleek Jacobs,Austin Westlake,59.87,154.22,74.84,181.44,410.5,Single-ply,SBD,M
Boys,67.13,4,Jordan Glueck,Columbus,60.1,149.69,83.91,158.76,392.36,Single-ply,SBD,M
Boys,59.87,5,Matt Delgado,Columbus,59.87,140.61,92.99,149.69,383.29,Single-ply,SBD,M
Boys,67.13,6,Brian Knowles,Hempstead,60.1,158.76,70.31,142.88,371.95,Single-ply,SBD,M
Boys,59.87,7,Garrett Rios,Columbus,59.42,136.08,95.25,136.08,367.41,Single-ply,SBD,M
Boys,59.87,8,Jeffrey Johnson #3,Seguin,58.74,122.47,77.11,149.69,349.27,Single-ply,SBD,M
Boys,59.87,9,Stefan Brown,Columbus,56.7,124.74,90.72,111.13,326.59,Single-ply,SBD,M
Boys,67.13,10,John Marek,Bellville,60.1,102.06,61.23,113.4,276.69,Single-ply,SBD,M
Boys,59.87,11,Chris Blascke,Smithville,57.15,102.06,58.97,113.4,274.42,Single-ply,SBD,M
Boys,59.87,DQ,Ryan Brzozowski,Wallis Brazos,59.87,111.13,,,,Single-ply,SBD,M
Boys,67.13,1,Zach Konieczny,Sealy,66.68,192.78,127.01,192.78,512.56,Single-ply,SBD,M
Boys,67.13,2,Fisher Sutterfield,Austin Bowie,65.77,179.17,117.93,174.63,471.74,Single-ply,SBD,M
Boys,67.13,3,Jose Jimenez #11,Palacios,66,165.56,113.4,185.97,464.93,Single-ply,SBD,M
Boys,74.84,4,Connor Cross,Dripping Springs,67.36,195.04,95.25,163.29,453.59,Single-ply,SBD,M
Boys,67.13,5,Josh Mora,Wallis Brazos,66,147.42,97.52,147.42,392.36,Single-ply,SBD,M
Boys,67.13,6,Daniel Islet,Giddings,62.14,147.42,88.45,149.69,385.55,Single-ply,SBD,M
Boys,67.13,7,Skylar Shimek,La Grange,65.54,151.95,83.91,127.01,362.87,Single-ply,SBD,M
Boys,67.13,8,Jesse Orozco,Hempstead,66.22,113.4,111.13,136.08,360.61,Single-ply,SBD,M
Boys,67.13,9,Esteban Nunez,Caldwell,66.22,147.42,70.31,136.08,353.8,Single-ply,SBD,M
Boys,67.13,10,Austin Brzozowski,Wallis Brazos,66,124.74,83.91,124.74,333.39,Single-ply,SBD,M
Boys,67.13,11,Eder Ramirez,Brookshire Royal,64.86,124.74,61.23,142.88,328.85,Single-ply,SBD,M
Boys,67.13,12,Victor De La Garza,Brookshire Royal,66.68,111.13,74.84,138.35,324.32,Single-ply,SBD,M
Boys,67.13,13,Will Love,Bellville,63.96,102.06,77.11,127.01,306.17,Single-ply,SBD,M
Boys,74.84,14,Jacob Skidmore,Austin Bowie,67.36,104.33,61.23,129.27,294.84,Single-ply,SBD,M
Boys,67.13,15,Andrew Smalls,Brookshire Royal,63.05,83.91,74.84,102.06,260.82,Single-ply,SBD,M
Boys,74.84,DQ,Clayton Stuart,Caldwell,67.36,,,,,Single-ply,SBD,M
Boys,67.13,DQ,Will Ferrell,Liberty Hill,62.14,138.35,,,,Single-ply,SBD,M
Boys,74.84,1,Darius Battles,Hempstead,73.03,199.58,133.81,213.19,546.58,Single-ply,SBD,M
Boys,74.84,2,DeRon Bullard,Giddings,74.84,217.72,124.74,204.12,546.58,Single-ply,SBD,M
Boys,74.84,3,David Wren,Dripping Springs,74.16,188.24,122.47,222.26,532.97,Single-ply,SBD,M
Boys,74.84,4,Dalton Manning,Schulenburg,73.26,197.31,124.74,201.85,523.9,Single-ply,SBD,M
Boys,74.84,5,Jordan Benford,Columbus,73.48,172.37,129.27,210.92,512.56,Single-ply,SBD,M
Boys,82.1,6,Sotero Lara,Giddings,75.07,197.31,113.4,199.58,510.29,Single-ply,SBD,M
Boys,74.84,7,Easton Bauer,Dripping Springs,72.8,176.9,102.06,208.65,487.61,Single-ply,SBD,M
Boys,74.84,8,Michael Pacheco,Bastrop,73.94,181.44,115.67,174.63,471.74,Single-ply,SBD,M
Boys,74.84,9,Eric Sanchez,Wallis Brazos,71.44,183.7,95.25,185.97,464.93,Single-ply,SBD,M
Boys,74.84,10,Tanner Nelson,Bastrop,74.84,172.37,88.45,181.44,442.25,Single-ply,SBD,M
Boys,74.84,11,Jocquin Garza,Hallettsville,68.04,170.1,88.45,181.44,439.98,Single-ply,SBD,M
Boys,74.84,12,Garritt McGraw,Austin Bowie,74.84,149.69,104.33,181.44,435.45,Single-ply,SBD,M
Boys,74.84,13,Jorge Munoz,Luling,70.76,158.76,97.52,174.63,430.91,Single-ply,SBD,M
Boys,74.84,14,Alex Hunter,Giddings,70.76,170.1,102.06,151.95,424.11,Single-ply,SBD,M
Boys,74.84,15,Shaunessy Marshall,Luling,69.4,158.76,92.99,170.1,421.84,Single-ply,SBD,M
Boys,74.84,16,Riley Weido,Columbus,70.76,156.49,92.99,163.29,412.77,Single-ply,SBD,M
Boys,74.84,17,Logan Jones,Caldwell,71.67,151.95,90.72,170.1,412.77,Single-ply,SBD,M
Boys,74.84,18,Allen Zapata,Brookshire Royal,74.16,151.95,86.18,174.63,412.77,Single-ply,SBD,M
Boys,74.84,19,Tyler Skelton,Hallettsville,73.94,147.42,102.06,161.03,410.5,Single-ply,SBD,M
Boys,74.84,20,Collen Dungen,Columbus,71.21,151.95,99.79,154.22,405.97,Single-ply,SBD,M
Boys,74.84,21,Luis Hernandez,La Grange,74.84,156.49,88.45,142.88,387.82,Single-ply,SBD,M
Boys,74.84,22,Byron Randle,Brookshire Royal,68.27,147.42,83.91,151.95,383.29,Single-ply,SBD,M
Boys,74.84,23,Dillon Davis #2,La Grange,73.71,140.61,74.84,142.88,358.34,Single-ply,SBD,M
Boys,74.84,24,Matt Dloughy,Caldwell,72.35,136.08,79.38,140.61,356.07,Single-ply,SBD,M
Boys,74.84,25,Daniel Gomez,Hallettsville,68.27,136.08,77.11,136.08,349.27,Single-ply,SBD,M
Boys,74.84,26,Tomas Salinas,Bellville,69.85,136.08,68.04,124.74,328.85,Single-ply,SBD,M
Boys,74.84,DQ,Nick Cardenas,Austin Bowie,74.16,185.97,,,,Single-ply,SBD,M
Boys,82.1,DQ,Eric Valdari,Killeen Shoemaker,75.07,149.69,92.99,,,Single-ply,SBD,M
Boys,82.1,1,Tyler McCoy,Giddings,80.06,238.14,147.42,226.8,612.35,Single-ply,SBD,M
Boys,89.81,2,Omar Pereyra,Dripping Springs,82.33,238.14,136.08,217.72,591.94,Single-ply,SBD,M
Boys,82.1,3,Thomas Ewing,Giddings,80.06,215.46,113.4,226.8,555.65,Single-ply,SBD,M
Boys,82.1,4,Matthew Nguyen,Palacios,75.3,210.92,117.93,210.92,539.77,Single-ply,SBD,M
Boys,82.1,5,Javier Garcia #4,Seguin,82.1,204.12,117.93,217.72,539.77,Single-ply,SBD,M
Boys,82.1,6,Hunter Matlock,Austin Bowie,78.47,192.78,124.74,204.12,521.63,Single-ply,SBD,M
Boys,82.1,7,Zach Foreman,Dripping Springs,81.42,190.51,122.47,208.65,521.63,Single-ply,SBD,M
Boys,82.1,8,Brandon Lincoln,Smithville,79.38,183.7,122.47,195.04,501.22,Single-ply,SBD,M
Boys,82.1,9,Carlos Zepeda,Seguin,79.83,174.63,122.47,188.24,485.34,Single-ply,SBD,M
Boys,82.1,10,Joseph Mendoza,Giddings,77.79,192.78,86.18,204.12,483.08,Single-ply,SBD,M
Boys,82.1,11,Deondre Acosta,Giddings,78.47,174.63,106.59,185.97,467.2,Single-ply,SBD,M
Boys,82.1,12,Quentin Bradford,Bastrop,78.47,174.63,97.52,195.04,467.2,Single-ply,SBD,M
Boys,82.1,13,Jeremy Mowdy,Smithville,81.65,174.63,102.06,176.9,453.59,Single-ply,SBD,M
Boys,82.1,14,Cesar Sanchez,Luling,79.15,151.95,102.06,163.29,417.3,Single-ply,SBD,M
Boys,82.1,15,Justin Griggs,Hallettsville,80.29,147.42,92.99,158.76,399.16,Single-ply,SBD,M
Boys,82.1,16,Duane Howard,Bastrop,82.1,149.69,97.52,149.69,396.89,Single-ply,SBD,M
Boys,82.1,17,J'Shaun Collins,Killeen Shoemaker,81.19,142.88,86.18,165.56,394.63,Single-ply,SBD,M
Boys,82.1,18,Joey Lilly,Hempstead,77.79,158.76,86.18,142.88,387.82,Single-ply,SBD,M
Boys,82.1,19,Zach Badon,Liberty Hill,78.47,138.35,77.11,147.42,362.87,Single-ply,SBD,M
Boys,82.1,DQ,Jonah Pearson,Liberty Hill,76.88,,,,,Single-ply,SBD,M
Boys,89.81,DQ,Kenny Alexander,Liberty Hill,82.33,129.27,,,,Single-ply,SBD,M
Boys,82.1,DQ,Clint Cantu,Luling,79.38,151.95,,,,Single-ply,SBD,M
Boys,82.1,DQ,Cameron Nicholson,Hallettsville,76.88,147.42,,,,Single-ply,SBD,M
Boys,89.81,1,Marlin O'Neal,Dripping Springs,89.13,226.8,129.27,233.6,589.67,Single-ply,SBD,M
Boys,89.81,2,Aaron Werlein,Luling,83.46,226.8,120.2,222.26,569.26,Single-ply,SBD,M
Boys,89.81,3,Otis Jordan,Killeen Shoemaker,85.96,213.19,129.27,192.78,535.24,Single-ply,SBD,M
Boys,89.81,4,Steven Kittle,Dripping Springs,89.36,199.58,115.67,219.99,535.24,Single-ply,SBD,M
Boys,89.81,5,Jonathan Massey,Caldwell,85.96,215.46,120.2,185.97,521.63,Single-ply,SBD,M
Boys,89.81,6,DaAaron Jackson,Smithville,86.18,199.58,113.4,206.38,519.36,Single-ply,SBD,M
Boys,89.81,7,Jonathan Massey,Killeen Shoemaker,88.22,181.44,108.86,226.8,517.1,Single-ply,SBD,M
Boys,89.81,8,John Subia,Austin Bowie,86.64,170.1,138.35,192.78,501.22,Single-ply,SBD,M
Boys,89.81,9,Ty Winkler,Schulenburg,83.46,190.51,111.13,185.97,487.61,Single-ply,SBD,M
Boys,89.81,10,Eddie Martinez,Sealy,86.41,192.78,113.4,181.44,487.61,Single-ply,SBD,M
Boys,89.81,11,Dylan Kerr,Hallettsville,83.46,190.51,113.4,181.44,485.34,Single-ply,SBD,M
Boys,89.81,12,Thomas Aguilar,Wallis Brazos,89.36,158.76,117.93,190.51,467.2,Single-ply,SBD,M
Boys,99.79,13,Clark Shellhorse,Austin Bowie,90.04,158.76,117.93,181.44,458.13,Single-ply,SBD,M
Boys,89.81,14,David Hayward,Columbus,89.36,190.51,102.06,163.29,455.86,Single-ply,SBD,M
Boys,89.81,15,Jake Dawson,Smithville,87.54,176.9,97.52,174.63,449.06,Single-ply,SBD,M
Boys,89.81,16,Jacob Garbs,Wallis Brazos,84.82,158.76,102.06,181.44,442.25,Single-ply,SBD,M
Boys,89.81,17,Ryan Mercado,Austin Bowie,87.32,158.76,106.59,172.37,437.72,Single-ply,SBD,M
Boys,89.81,18,Kade Hurta,Smithville,87.77,165.56,86.18,163.29,415.04,Single-ply,SBD,M
Boys,89.81,19,Malik Clemmons,Killeen Shoemaker,86.64,158.76,92.99,154.22,405.97,Single-ply,SBD,M
Boys,89.81,20,Matthew Georg,Seguin,86.64,145.15,88.45,142.88,376.48,Single-ply,SBD,M
Boys,89.81,21,Timothy Gayton,Hempstead,87.09,131.54,97.52,145.15,374.21,Single-ply,SBD,M
Boys,89.81,22,Travis Vornkahl,Bellville,85.5,138.35,79.38,147.42,365.14,Single-ply,SBD,M
Boys,89.81,23,Tyler Kozel,Hempstead,85.28,124.74,79.38,142.88,347,Single-ply,SBD,M
Boys,89.81,24,Dennis Phillips,Hallettsville,88.22,113.4,58.97,124.74,297.1,Single-ply,SBD,M
Boys,99.79,1,Deon Hutchinson,Giddings,93.67,254.01,142.88,242.67,639.57,Single-ply,SBD,M
Boys,99.79,2,Heath Antwan,Caldwell,95.93,240.4,136.08,238.14,614.62,Single-ply,SBD,M
Boys,99.79,3,Juan Nunez,Caldwell,97.3,233.6,140.61,226.8,601.01,Single-ply,SBD,M
Boys,99.79,4,Drew Peterson,Dripping Springs,90.72,219.99,140.61,235.87,596.47,Single-ply,SBD,M
Boys,99.79,5,Rihl Dougherty,Dripping Springs,96.62,226.8,140.61,229.06,596.47,Single-ply,SBD,M
Boys,99.79,6,Ryan Taylor #8,Austin Bowie,93.89,215.46,138.35,215.46,569.26,Single-ply,SBD,M
Boys,99.79,7,Josh King #7,Killeen Shoemaker,94.8,201.85,117.93,233.6,553.38,Single-ply,SBD,M
Boys,99.79,8,Jacob Almaguer,Seguin,91.17,215.46,122.47,210.92,548.85,Single-ply,SBD,M
Boys,99.79,9,Brian Branecky,Bastrop,93.89,215.46,122.47,192.78,530.7,Single-ply,SBD,M
Boys,99.79,10,Paul Whitmill,Bastrop,91.4,201.85,115.67,206.38,523.9,Single-ply,SBD,M
Boys,99.79,11,Cris Skilang,Killeen Shoemaker,90.26,183.7,129.27,204.12,517.1,Single-ply,SBD,M
Boys,99.79,12,Shawn Dehart,Liberty Hill,92.31,204.12,120.2,192.78,517.1,Single-ply,SBD,M
Boys,99.79,13,Will Smith,Liberty Hill,95.71,190.51,120.2,176.9,487.61,Single-ply,SBD,M
Boys,99.79,14,Kegan Bledsoe,Smithville,97.07,208.65,92.99,185.97,487.61,Single-ply,SBD,M
Boys,99.79,15,Collin Filapiando,Bastrop,95.48,183.7,122.47,176.9,483.08,Single-ply,SBD,M
Boys,99.79,16,Erasmo Lopez,Hallettsville,94.8,192.78,111.13,174.63,478.54,Single-ply,SBD,M
Boys,99.79,17,Tyler Sedlacek,Columbus,95.71,163.29,124.74,181.44,469.47,Single-ply,SBD,M
Boys,99.79,18,Kyle Leopold,Hallettsville,92.08,158.76,95.25,192.78,446.79,Single-ply,SBD,M
Boys,99.79,19,William Wang,Austin Westlake,92.08,181.44,77.11,181.44,439.98,Single-ply,SBD,M
Boys,99.79,20,Trey Taylor,Brookshire Royal,98.66,163.29,111.13,151.95,426.38,Single-ply,SBD,M
Boys,99.79,21,Riley Helmcamp,Smithville,93.21,147.42,92.99,174.63,415.04,Single-ply,SBD,M
Boys,99.79,22,Cade Blezinger,Bellville,94.35,145.15,90.72,147.42,383.29,Single-ply,SBD,M
Boys,99.79,DQ,Bradley Cook,Smithville,97.07,156.49,,,,Single-ply,SBD,M
Boys,109.77,1,Adam Aucoin,Palacios,109.32,299.37,172.37,244.94,716.68,Single-ply,SBD,M
Boys,109.77,2,Pj Hall,Seguin,108.86,272.16,149.69,274.42,696.26,Single-ply,SBD,M
Boys,109.77,3,Orlando Ordonez,Luling,105.23,254.01,151.95,192.78,598.74,Single-ply,SBD,M
Boys,109.77,4,Bryce Helmcamp,Smithville,109.32,226.8,140.61,226.8,594.21,Single-ply,SBD,M
Boys,109.77,5,Omar Ordonez,Luling,104.78,240.4,147.42,201.85,589.67,Single-ply,SBD,M
Boys,109.77,6,Vincent Hernandez,Liberty Hill,107.05,215.46,127.01,204.12,546.58,Single-ply,SBD,M
Boys,124.74,7,Roberto Requena,Caldwell,110,167.83,111.13,201.85,480.81,Single-ply,SBD,M
Boys,109.77,8,D'Antre Smith,Seguin,108.86,174.63,120.2,183.7,478.54,Single-ply,SBD,M
Boys,109.77,9,Austen Williams,Bellville,103.19,181.44,111.13,151.95,444.52,Single-ply,SBD,M
Boys,109.77,10,Brent Perry,Giddings,104.33,102.06,61.23,147.42,310.71,Single-ply,SBD,M
Boys,124.74,1,Bryce Dallmeyer,Liberty Hill,115.67,247.21,154.22,197.31,598.74,Single-ply,SBD,M
Boys,124.74,2,Johnathan Acuna,Wallis Brazos,122.7,201.85,151.95,197.31,551.11,Single-ply,SBD,M
Boys,124.74,3,Anthony Rivera,Bastrop,120.2,215.46,97.52,192.78,505.76,Single-ply,SBD,M
Boys,124.74,4,Isiah Morse-Weiss,La Grange,115.21,174.63,115.67,213.19,503.49,Single-ply,SBD,M
Boys,124.74,5,Ryan Meza,Dripping Springs,122.02,195.04,104.33,195.04,494.42,Single-ply,SBD,M
Boys,124.74,6,Judge Finley,Austin Westlake,116.35,199.58,99.79,190.51,489.88,Single-ply,SBD,M
Boys,124.74,7,Zackary Handrick,Giddings,112.49,192.78,111.13,183.7,487.61,Single-ply,SBD,M
Boys,124.74,8,Ethan Allen,Giddings,116.8,188.24,102.06,183.7,474,Single-ply,SBD,M
Boys,124.74,9,Michel White,Austin Bowie,116.8,158.76,104.33,190.51,453.59,Single-ply,SBD,M
Boys,124.74,10,Will Copa,Austin Westlake,119.29,149.69,77.11,158.76,385.55,Single-ply,SBD,M
Boys,124.74+,1,Jonathon Ramirez,Giddings,144.24,251.74,183.7,231.33,666.78,Single-ply,SBD,M
Boys,124.74+,2,Danny Bricker,Giddings,150.37,272.16,158.76,229.06,659.98,Single-ply,SBD,M
Boys,124.74+,3,Tj Valentine,Killeen Shoemaker,134.94,226.8,129.27,229.06,585.13,Single-ply,SBD,M
Boys,124.74+,4,Robert Kitchen,La Grange,132.22,242.67,140.61,195.04,578.33,Single-ply,SBD,M
Boys,124.74+,5,Daniel Velasquez,La Grange,132,185.97,129.27,183.7,498.95,Single-ply,SBD,M
Boys,124.74+,6,Dontae Green,Luling,152.86,183.7,102.06,183.7,469.47,Single-ply,SBD,M
Boys,124.74+,7,Silas Connolly,Austin Westlake,139.48,181.44,90.72,181.44,453.59,Single-ply,SBD,M
Boys,124.74+,8,Kaleb Quintanilla,Seguin,127.01,163.29,120.2,147.42,430.91,Single-ply,SBD,M
Boys,124.74+,9,Amor Peguese,Killeen Shoemaker,138.8,158.76,72.57,142.88,374.21,Single-ply,SBD,M
Boys,124.74+,10,Jordan Davis #5,Bastrop,138.8,149.69,72.57,138.35,360.61,Single-ply,SBD,M
Boys,124.74+,11,Dustin Blankemeyer,Bellville,127.01,151.95,68.04,136.08,356.07,Single-ply,SBD,M
Boys,124.74+,DQ,Derek Bedal,Bastrop,131.09,,,,,Single-ply,SBD,M
