Division,WeightClassKg,Place,Name,Team,BodyweightKg,Best3SquatKg,Best3BenchKg,Best3DeadliftKg,TotalKg,Equipment,Event,Sex,BirthDate
Girls,44.23,1,Aryana Hernandez,Mathis,44.09,95.25,49.9,92.99,238.14,Single-ply,SBD,F,
Girls,44.23,2,Natalie Lopez,Agua Dulce,43,74.84,36.29,81.65,192.78,Single-ply,SBD,F,
Girls,44.23,3,Gloria Herrera,Corpus Christi Tuloso-Midway,42.27,68.04,34.02,88.45,190.51,Single-ply,SBD,F,
Girls,44.23,4,Elly Campos,Freer,44.18,47.63,29.48,56.7,133.81,Single-ply,SBD,F,
Girls,47.85,1,Marina Lopez,Skidmore-Tynan,47.45,106.59,61.23,117.93,285.76,Single-ply,SBD,F,
Girls,47.85,2,Sara Perez,Freer,47.45,95.25,54.43,102.06,251.74,Single-ply,SBD,F,
Girls,47.85,3,Joanna Flores,Agua Dulce,47.36,102.06,45.36,102.06,249.48,Single-ply,SBD,F,
Girls,47.85,4,Keiandra Ross,Mathis,46.99,74.84,36.29,90.72,201.85,Single-ply,SBD,F,
Girls,47.85,5,Breanna Garcia,Odem,46.18,56.7,31.75,68.04,156.49,Single-ply,SBD,F,
Girls,51.94,1,Juliana Vasquez,Corpus Christi Tuloso-Midway,51.07,122.47,74.84,131.54,328.85,Single-ply,SBD,F,
Girls,51.94,2,Linda Urquieta,Corpus Christi Tuloso-Midway,51.26,129.27,65.77,120.2,315.25,Single-ply,SBD,F,
Girls,51.94,3,Mercedes Leal,Mathis,51.8,108.86,49.9,108.86,267.62,Single-ply,SBD,F,
Girls,51.94,4,Melina Guerra,Falfurrias,51.94,117.93,52.16,97.52,267.62,Single-ply,SBD,F,
Girls,51.94,5,Reagan Coy,Odem,51.8,95.25,52.16,90.72,238.14,Single-ply,SBD,F,
Girls,56.02,1,Myndi Rodriguez,Corpus Christi Tuloso-Midway,53.8,142.88,74.84,129.27,347,Single-ply,SBD,F,
Girls,56.02,2,Kiara Ross,Mathis,55.88,124.74,63.5,120.2,308.44,Single-ply,SBD,F,
Girls,56.02,3,Bianca Guzman,Corpus Christi Tuloso-Midway,56.02,120.2,65.77,113.4,299.37,Single-ply,SBD,F,
Girls,56.02,4,Jailynn Garcia,Mathis,55.61,95.25,47.63,88.45,231.33,Single-ply,SBD,F,
Girls,56.02,5,Celeste Huerta,Skidmore-Tynan,52.71,79.38,47.63,102.06,229.06,Single-ply,SBD,F,
Girls,56.02,6,Kalista Ocana,Odem,52.8,79.38,36.29,95.25,210.92,Single-ply,SBD,F,
Girls,56.02,7,Jayla Benivedas,Kenedy,54.25,65.77,34.02,83.91,183.7,Single-ply,SBD,F,
Girls,60.1,1,Morgan Candela,Corpus Christi Tuloso-Midway,60.01,142.88,83.91,149.69,376.48,Single-ply,SBD,F,
Girls,60.1,2,Chloe Gibson,Skidmore-Tynan,59.15,120.2,65.77,124.74,310.71,Single-ply,SBD,F,
Girls,60.1,3,Clarissa Marroquin,Odem,58.6,102.06,47.63,86.18,235.87,Single-ply,SBD,F,
Girls,60.1,4,Emilly McAnear,Freer,60.06,95.25,36.29,102.06,233.6,Single-ply,SBD,F,
Girls,60.1,5,Lorraine Olivarez,Mathis,58.42,81.65,38.56,97.52,217.72,Single-ply,SBD,F,
Girls,67.36,1,Madison Flores,Mathis,67.31,136.08,61.23,99.79,297.1,Single-ply,SBD,F,
Girls,67.36,2,Skylette Cisneros,Skidmore-Tynan,66.77,113.4,54.43,122.47,290.3,Single-ply,SBD,F,
Girls,67.36,3,Alysha Beltran,Odem,63.78,102.06,63.5,122.47,288.03,Single-ply,SBD,F,
Girls,67.36,4,Izabella Lane,Freer,64.68,95.25,45.36,104.33,244.94,Single-ply,SBD,F,
Girls,67.36,5,Mia Aviles,Odem,62.05,92.99,47.63,102.06,242.67,Single-ply,SBD,F,
Girls,67.36,6,Katherine Pierce,Falfurrias,65.77,97.52,43.09,102.06,242.67,Single-ply,SBD,F,
Girls,67.36,7,Jocelynn Gonzales,Mathis,62.87,95.25,45.36,99.79,240.4,Single-ply,SBD,F,
Girls,67.36,8,Julietta Esqueda,Odem,62.51,70.31,40.82,99.79,210.92,Single-ply,SBD,F,
Girls,67.36,9,Traci McClellen,Odem,66.86,79.38,36.29,90.72,206.38,Single-ply,SBD,F,
Girls,75.07,1,Courtney Lamontagne,Corpus Christi Tuloso-Midway,70.31,161.03,92.99,158.76,412.77,Single-ply,SBD,F,
Girls,75.07,2,Alexus Valdez,Corpus Christi Tuloso-Midway,71.85,156.49,86.18,149.69,392.36,Single-ply,SBD,F,
Girls,75.07,3,Kirstyn Garza,Agua Dulce,73.3,133.81,61.23,127.01,322.05,Single-ply,SBD,F,
Girls,75.07,4,Realynn Flores,Corpus Christi Tuloso-Midway,71.3,115.67,65.77,136.08,317.51,Single-ply,SBD,F,
Girls,75.07,5,Isabella Gonzales,Mathis,73.84,129.27,61.23,104.33,294.84,Single-ply,SBD,F,
Girls,75.07,6,Sivounay Ramirez,Skidmore-Tynan,72.39,108.86,65.77,104.33,278.96,Single-ply,SBD,F,
Girls,75.07,7,Gabby Gonzales,Odem,71.49,74.84,38.56,97.52,210.92,Single-ply,SBD,F,
Girls,75.07,8,Annaid Olvera,Odem,73.21,70.31,56.7,77.11,204.12,Single-ply,SBD,F,
Girls,75.07,DQ,Reina Romero,Mathis,73.84,136.08,,,,Single-ply,SBD,F,
Girls,75.07,DQ,Adalee Salinas,Falfurrias,69.94,,,,,Single-ply,SBD,F,
Girls,82.33,1,Analeigha Salinas,Freer,77.29,145.15,63.5,108.86,317.51,Single-ply,SBD,F,
Girls,82.33,2,Kaitlyn Gonzales,Mathis,82.19,117.93,65.77,113.4,297.1,Single-ply,SBD,F,
Girls,82.33,3,Raighanna Zapata,Freer,81.65,117.93,52.16,122.47,292.57,Single-ply,SBD,F,
Girls,82.33,4,Laura Cantu,Freer,80.29,92.99,43.09,95.25,231.33,Single-ply,SBD,F,
Girls,82.33,5,Summer Lopez,Kenedy,78.02,52.16,43.09,72.57,167.83,Single-ply,SBD,F,
Girls,90.04,1,Daniella Villarreal,Skidmore-Tynan,85.82,142.88,81.65,131.54,356.07,Single-ply,SBD,F,
Girls,90.04,2,Gabriella Moreno,Freer,89.45,108.86,43.09,122.47,274.42,Single-ply,SBD,F,
Girls,90.04,3,Dezi Flores,Freer,84.46,97.52,49.9,99.79,247.21,Single-ply,SBD,F,
Girls,90.04,4,Yanah Perkins,Freer,89.72,65.77,52.16,97.52,215.46,Single-ply,SBD,F,
Girls,90.04,5,Aralynn Ortiz,Freer,87.18,54.43,34.02,72.57,161.03,Single-ply,SBD,F,
Girls,100.02,1,Analydia Montes,Corpus Christi Tuloso-Midway,93.35,185.97,95.25,167.83,449.06,Single-ply,SBD,F,
Girls,100.02,2,Daphnie Laymon,Freer,99.61,149.69,74.84,156.49,381.02,Single-ply,SBD,F,
Girls,100.02,3,Caitlin Lara,Mathis,95.48,115.67,74.84,108.86,299.37,Single-ply,SBD,F,
Girls,100.02,4,Ivy Morales,Mathis,94.89,113.4,61.23,90.72,265.35,Single-ply,SBD,F,
Girls,100.02,DQ,Yadhira Eguia,Mathis,96.34,106.59,,,,Single-ply,SBD,F,
Girls,117.71,1,Rian Garza,Kenedy,112.31,133.81,74.84,124.74,333.39,Single-ply,SBD,F,
Girls,117.71,DQ,Alianna Hernandez,Odem,103.87,,,,,Single-ply,SBD,F,
