Division,WeightClassKg,Place,Name,Team,BodyweightKg,Best3SquatKg,Best3BenchKg,Best3DeadliftKg,TotalKg,Equipment,Event,Sex
Boys,51.71,1,Joe Castillo #3,Altair Rice,51.35,142.88,63.5,145.15,351.53,Single-ply,SBD,M
Boys,51.71,2,Austin Draper,East Bernard,51.26,124.74,63.5,122.47,310.71,Single-ply,SBD,M
Boys,51.71,3,Ross Schumacher,Bellville,50.35,120.2,49.9,106.59,276.69,Single-ply,SBD,M
Boys,55.79,1,Dalton Opperman,Columbus,54.43,142.88,83.91,145.15,371.95,Single-ply,SBD,M
Boys,55.79,2,Trey Steffens,East Bernard,54.88,138.35,65.77,124.74,328.85,Single-ply,SBD,M
Boys,55.79,3,Charles Boettcher,East Bernard,52.62,108.86,63.5,124.74,297.1,Single-ply,SBD,M
Boys,55.79,4,Brandon Limas,Wharton,53.98,83.91,72.57,102.06,258.55,Single-ply,SBD,M
Boys,55.79,DQ,Ryan Garcia,Cuero,53.52,151.95,83.91,,,Single-ply,SBD,M
Boys,55.79,DQ,Adriel Ruiz,Luling,54.88,127.01,,,,Single-ply,SBD,M
Boys,59.87,1,Kevion Terrel,Victoria St. Joseph,58.97,149.69,90.72,163.29,403.7,Single-ply,SBD,M
Boys,59.87,2,Kameron Matthews,East Bernard,59.42,140.61,86.18,149.69,376.48,Single-ply,SBD,M
Boys,59.87,3,Kevin Gonzales,Columbus,57.15,122.47,72.57,174.63,369.68,Single-ply,SBD,M
Boys,59.87,4,Harris Green-Moran,Flatonia,58.51,142.88,74.84,149.69,367.41,Single-ply,SBD,M
Boys,59.87,5,Nathan Gurecky,Wharton,59.87,124.74,74.84,145.15,344.73,Single-ply,SBD,M
Boys,59.87,6,Armando Ibarra,Brookshire Royal,59.42,120.2,65.77,145.15,331.12,Single-ply,SBD,M
Boys,59.87,7,Lucas DeBord,Cuero,58.51,124.74,63.5,122.47,310.71,Single-ply,SBD,M
Boys,59.87,8,Sam Peacock,Altair Rice,56.61,108.86,65.77,127.01,301.64,Single-ply,SBD,M
Boys,67.13,1,Orlando Moreno,Bay City,66.22,210.92,117.93,190.51,519.36,Single-ply,SBD,M
Boys,67.13,2,Jacob Reece,Bastrop,66.68,181.44,104.33,185.97,471.74,Single-ply,SBD,M
Boys,67.13,3,Niklas Schatz,East Bernard,65.77,172.37,83.91,176.9,433.18,Single-ply,SBD,M
Boys,67.13,4,Hunter Kohleffel,Columbus,66.68,181.44,79.38,158.76,419.57,Single-ply,SBD,M
Boys,67.13,5,Sutton Linsdley,Bastrop,62.6,145.15,108.86,163.29,417.3,Single-ply,SBD,M
Boys,67.13,6,Adrian Sepulveda,Smithville,66.22,149.69,92.99,140.61,383.29,Single-ply,SBD,M
Boys,67.13,7,Rider Reid,La Grange,60.33,115.67,90.72,151.95,358.34,Single-ply,SBD,M
Boys,67.13,8,Apolo Ramos,Smithville,65.32,136.08,70.31,138.35,344.73,Single-ply,SBD,M
Boys,67.13,9,Aden Falks,Wharton,64.86,102.06,70.31,124.74,297.1,Single-ply,SBD,M
Boys,67.13,10,Leonardo Dominguez,Bastrop,60.78,104.33,52.16,95.25,251.74,Single-ply,SBD,M
Boys,67.13,DQ,Gunnar Davidek,Wharton,65.77,136.08,,,,Single-ply,SBD,M
Boys,74.84,1,Jonathan Pesina,Bay City,74.39,213.19,133.81,210.92,557.92,Single-ply,SBD,M
Boys,74.84,2,Daniel Cobia,Smithville,72.57,188.24,108.86,185.97,483.08,Single-ply,SBD,M
Boys,74.84,3,Alex Bonorden,Victoria St. Joseph,70.76,158.76,90.72,174.63,424.11,Single-ply,SBD,M
Boys,74.84,4,Ja'Shawn Nickerson,Wharton,71.67,142.88,83.91,181.44,408.23,Single-ply,SBD,M
Boys,74.84,5,Miles DeLeon,Wharton,69.4,133.81,113.4,149.69,396.89,Single-ply,SBD,M
Boys,74.84,6,Blake Jedlicka,East Bernard,70.76,156.49,74.84,163.29,394.63,Single-ply,SBD,M
Boys,74.84,7,Joshua Ramirez,Flatonia,72.12,149.69,83.91,158.76,392.36,Single-ply,SBD,M
Boys,74.84,8,Creed Whitfill,Bastrop,69.85,151.95,77.11,151.95,381.02,Single-ply,SBD,M
Boys,74.84,9,Juan Barboza,Altair Rice,74.25,145.15,65.77,151.95,362.87,Single-ply,SBD,M
Boys,74.84,DQ,Tre Stovall,Altair Rice,69.22,,,,,Single-ply,SBD,M
Boys,74.84,DQ,Clay Padgett,Smithville,71.21,,,,,Single-ply,SBD,M
Boys,74.84,DQ,Damontae Levi,Altair Rice,70.31,,,,,Single-ply,SBD,M
Boys,82.1,1,Dayton Ball,Cuero,80.29,226.8,142.88,247.21,616.89,Single-ply,SBD,M
Boys,82.1,2,Ezekiel Davila,Altair Rice,77.56,256.28,122.47,226.8,605.55,Single-ply,SBD,M
Boys,82.1,3,Wayne Rinn,Bellville,80.29,226.8,115.67,199.58,542.04,Single-ply,SBD,M
Boys,82.1,4,Hunter Goudeau,East Bernard,78.93,210.92,102.06,215.46,528.44,Single-ply,SBD,M
Boys,82.1,5,Weston Warshack,Columbus,81.65,204.12,124.74,195.04,523.9,Single-ply,SBD,M
Boys,82.1,6,Sergio Torres #1,Gonzales,81.19,197.31,120.2,174.63,492.15,Single-ply,SBD,M
Boys,82.1,7,Landon Rodriguez,Altair Rice,78.2,199.58,102.06,181.44,483.08,Single-ply,SBD,M
Boys,82.1,8,Deviro Yanis,La Grange,75.75,163.29,97.52,188.24,449.06,Single-ply,SBD,M
Boys,82.1,9,Dustin Armstrong,Smithville,78.02,158.76,99.79,181.44,439.98,Single-ply,SBD,M
Boys,82.1,10,Chirstian Lopez,Bastrop,79.38,147.42,104.33,170.1,421.84,Single-ply,SBD,M
Boys,82.1,11,Dylan Schaefer,Flatonia,81.65,154.22,79.38,181.44,415.04,Single-ply,SBD,M
Boys,82.1,12,Carson Evans,Hallettsville,80.29,138.35,92.99,167.83,399.16,Single-ply,SBD,M
Boys,82.1,13,Cole Powell,Bellville,81.65,142.88,90.72,136.08,369.68,Single-ply,SBD,M
Boys,82.1,14,Haven Pennington,Hempstead,76.2,120.2,86.18,142.88,349.27,Single-ply,SBD,M
Boys,82.1,15,Josh McDonald,Brookshire Royal,76.66,122.47,77.11,147.42,347,Single-ply,SBD,M
Boys,82.1,16,Aldahir Mendoza,Brookshire Royal,80.29,115.67,72.57,154.22,342.46,Single-ply,SBD,M
Boys,82.1,17,Luke Guevarra,Hallettsville,80.29,129.27,68.04,129.27,326.59,Single-ply,SBD,M
Boys,82.1,DQ,Joel Mendoza,Columbus,80.29,149.69,,,,Single-ply,SBD,M
Boys,82.1,DQ,Jonathan Huerta,Brookshire Royal,78.47,181.44,77.11,,,Single-ply,SBD,M
Boys,82.1,DQ,Jacob Bandera,Smithville,81.65,219.99,129.27,,,Single-ply,SBD,M
Boys,82.1,DQ,Justin High,Bellville,80.74,179.17,,,,Single-ply,SBD,M
Boys,89.81,1,Jackson Roensch,Columbus,88.9,226.8,172.37,215.46,614.62,Single-ply,SBD,M
Boys,89.81,2,Alex Marek,Bellville,84.82,201.85,111.13,226.8,539.77,Single-ply,SBD,M
Boys,89.81,3,Logan Gaskey,Bastrop,88.45,199.58,120.2,204.12,523.9,Single-ply,SBD,M
Boys,89.81,4,Isaiah Estrada,Victoria St. Joseph,85.28,206.38,102.06,192.78,501.22,Single-ply,SBD,M
Boys,89.81,5,Jose Navarro,Wharton,88,170.1,113.4,181.44,464.93,Single-ply,SBD,M
Boys,89.81,6,Coby Smith,Giddings,87.54,183.7,92.99,183.7,460.4,Single-ply,SBD,M
Boys,89.81,7,Stephen Titus,Smithville,86.64,140.61,97.52,156.49,394.63,Single-ply,SBD,M
Boys,89.81,8,Javier Lopez,La Grange,82.55,138.35,83.91,151.95,374.21,Single-ply,SBD,M
Boys,89.81,9,Hayden Land,Victoria St. Joseph,85.73,124.74,79.38,145.15,349.27,Single-ply,SBD,M
Boys,89.81,10,Hayden Scott,Wharton,89.36,124.74,68.04,106.59,299.37,Single-ply,SBD,M
Boys,89.81,DQ,Jay Rainwater,Wharton,85.28,142.88,,,,Single-ply,SBD,M
Boys,89.81,DQ,Donavan Krushall,Wharton,83.91,165.56,,,,Single-ply,SBD,M
Boys,89.81,DQ,Jude Dennis,Bastrop,88,201.85,115.67,,,Single-ply,SBD,M
Boys,89.81,DQ,Blayne Ciancone,Bellville,83.91,181.44,90.72,,,Single-ply,SBD,M
Boys,89.81,DQ,Preston Gurrola,Hempstead,86.64,,,,,Single-ply,SBD,M
Boys,89.81,DQ,John Jackson,Hempstead,83.46,226.8,,,,Single-ply,SBD,M
Boys,99.79,1,AJ Castaneda,Bellville,93.44,285.76,183.7,249.48,718.94,Single-ply,SBD,M
Boys,99.79,2,Aj Flores,Altair Rice,95.98,267.62,129.27,242.67,639.57,Single-ply,SBD,M
Boys,99.79,3,Sammy Segura,Giddings,96.16,249.48,165.56,219.99,635.03,Single-ply,SBD,M
Boys,99.79,4,David Sanchez #5,La Grange,95.25,215.46,120.2,215.46,551.11,Single-ply,SBD,M
Boys,99.79,5,Ben Sandoval,East Bernard,91.17,226.8,117.93,197.31,542.04,Single-ply,SBD,M
Boys,99.79,6,Steven Pena,Wharton,99.79,204.12,113.4,204.12,521.63,Single-ply,SBD,M
Boys,99.79,7,Noe Torres,Bastrop,94.8,213.19,104.33,199.58,517.1,Single-ply,SBD,M
Boys,99.79,8,Christian Almaguer,Gonzales,95.25,199.58,115.67,188.24,503.49,Single-ply,SBD,M
Boys,99.79,9,Landon Sluka,Hallettsville,94.35,188.24,115.67,188.24,492.15,Single-ply,SBD,M
Boys,99.79,10,Everado Esquivel,Altair Rice,95.44,183.7,115.67,179.17,478.54,Single-ply,SBD,M
Boys,99.79,11,Margarito Calderon,Brookshire Royal,96.62,176.9,102.06,195.04,474,Single-ply,SBD,M
Boys,99.79,12,Andrew Rodriguez,Giddings,94.35,174.63,104.33,165.56,444.52,Single-ply,SBD,M
Boys,99.79,13,Robert Perdziak,Hallettsville,92.53,154.22,99.79,165.56,419.57,Single-ply,SBD,M
Boys,99.79,14,Samuel Hermes,Hallettsville,95.25,156.49,92.99,149.69,399.16,Single-ply,SBD,M
Boys,99.79,15,Gage Gaona,Wharton,92.53,127.01,77.11,136.08,340.19,Single-ply,SBD,M
Boys,99.79,16,Agustin Munoz,Wharton,97.07,97.52,72.57,122.47,292.57,Single-ply,SBD,M
Boys,99.79,DQ,Keilonn Allen,Wharton,92.08,142.88,,,,Single-ply,SBD,M
Boys,109.77,1,Jared Esparza,Gonzales,100.7,251.74,165.56,263.08,680.39,Single-ply,SBD,M
Boys,109.77,2,Destin Shular,East Bernard,105.23,238.14,136.08,233.6,607.81,Single-ply,SBD,M
Boys,109.77,3,Vicente Reyna,Gonzales,102.97,238.14,129.27,224.53,591.94,Single-ply,SBD,M
Boys,109.77,4,Ryan Hlavinka,East Bernard,102.06,231.33,131.54,213.19,576.06,Single-ply,SBD,M
Boys,109.77,5,Ivan Dewitt,Bay City,107.95,226.8,133.81,204.12,564.72,Single-ply,SBD,M
Boys,109.77,6,Michael Galvez,Bay City,106.59,224.53,142.88,181.44,548.85,Single-ply,SBD,M
Boys,109.77,7,Juan Hernandez #7,Brookshire Royal,106.59,222.26,113.4,208.65,544.31,Single-ply,SBD,M
Boys,109.77,8,Omarian Gillum,Hempstead,107.5,197.31,117.93,192.78,508.02,Single-ply,SBD,M
Boys,109.77,9,Robbie Greg,Smithville,109.32,222.26,115.67,161.03,498.95,Single-ply,SBD,M
Boys,109.77,10,Zach Banda,Cuero,106.59,197.31,102.06,197.31,496.68,Single-ply,SBD,M
Boys,109.77,11,Nate Beck,Victoria St. Joseph,104.33,176.9,102.06,188.24,467.2,Single-ply,SBD,M
Boys,109.77,12,Silvano Reyes,Gonzales,107.05,192.78,124.74,149.69,467.2,Single-ply,SBD,M
Boys,109.77,DQ,Zach King,Bastrop,103.42,185.97,99.79,,,Single-ply,SBD,M
Boys,124.74,1,Josh Cervantez,La Grange,117.03,272.16,142.88,238.14,653.17,Single-ply,SBD,M
Boys,124.74,2,Tyrone Wilson,Bastrop,120.2,251.74,161.03,240.4,653.17,Single-ply,SBD,M
Boys,124.74,3,Sergio Calvo,Victoria St. Joseph,120.66,240.4,122.47,249.48,612.35,Single-ply,SBD,M
Boys,124.74,4,Cameron Anderson,Bellville,118.84,254.01,147.42,195.04,596.47,Single-ply,SBD,M
Boys,124.74,5,Ryan Gomez,Gonzales,122.47,226.8,136.08,233.6,596.47,Single-ply,SBD,M
Boys,124.74,6,Eduardo Arteaga,Brookshire Royal,119.29,240.4,106.59,231.33,578.33,Single-ply,SBD,M
Boys,124.74,7,Alex Fuentes,East Bernard,121.11,215.46,113.4,217.72,546.58,Single-ply,SBD,M
Boys,124.74,8,Cayden Scott,Bastrop,122.47,183.7,117.93,192.78,494.42,Single-ply,SBD,M
Boys,124.74+,1,Chris Sifuentes,Giddings,147.87,267.62,145.15,249.48,662.24,Single-ply,SBD,M
Boys,124.74+,2,Taj Fields,Altair Rice,147.92,274.42,133.81,210.92,619.15,Single-ply,SBD,M
Boys,124.74+,3,JR Schauer,East Bernard,137.89,231.33,154.22,197.31,582.87,Single-ply,SBD,M
Boys,124.74+,4,Dylan Ramirez,Altair Rice,134.94,235.87,133.81,183.7,553.38,Single-ply,SBD,M
Boys,124.74+,5,Wyatt Bush,Hempstead,137.44,231.33,115.67,204.12,551.11,Single-ply,SBD,M
Boys,124.74+,6,D'Anthony Jackson,Giddings,126.1,244.94,127.01,176.9,548.85,Single-ply,SBD,M
Boys,124.74+,7,Cody Robert,Hallettsville,141.52,204.12,136.08,183.7,523.9,Single-ply,SBD,M
Boys,124.74+,8,Antonio Marquez,Altair Rice,128.41,208.65,108.86,199.58,517.1,Single-ply,SBD,M
Boys,124.74+,9,Kolton Brod,Columbus,138.8,192.78,131.54,188.24,512.56,Single-ply,SBD,M
Boys,124.74+,10,Jonas DeLeon,Cuero,148.32,208.65,117.93,167.83,494.42,Single-ply,SBD,M
Boys,124.74+,11,Eric Cedillo,Flatonia,165.56,195.04,117.93,158.76,471.74,Single-ply,SBD,M
Boys,124.74+,12,Jordan Pesina,Bay City,130.63,183.7,92.99,142.88,419.57,Single-ply,SBD,M
Boys,,NS,Ja'Quarian Hopkins,Wharton,,,,,,Single-ply,SBD,M
Boys,,NS,Gabriel Medina,Victoria St. Joseph,,,,,,Single-ply,SBD,M
Boys,,NS,Luke Trevino,East Bernard,,,,,,Single-ply,SBD,M
Boys,,NS,Ethan Psencik,Smithville,,,,,,Single-ply,SBD,M
Boys,,NS,Payton Terrell,Victoria St. Joseph,,,,,,Single-ply,SBD,M
Boys,,NS,Caleb Limon,Victoria St. Joseph,,,,,,Single-ply,SBD,M
Boys,,NS,Lucas Matthews,Victoria St. Joseph,,,,,,Single-ply,SBD,M
Boys,,NS,Javien Times,Bay City,,,,,,Single-ply,SBD,M
Boys,,NS,Justin Ficklen,Cuero,,,,,,Single-ply,SBD,M
Boys,,NS,Elijah Varnado,Cuero,,,,,,Single-ply,SBD,M
Boys,,NS,Cody Baker,Cuero,,,,,,Single-ply,SBD,M
Boys,,NS,Diego Hernandez,Gonzales,,,,,,Single-ply,SBD,M
Boys,,NS,Cesar Matamores,Gonzales,,,,,,Single-ply,SBD,M
Boys,,NS,James Martinez,Gonzales,,,,,,Single-ply,SBD,M
Boys,,NS,Lion Williamson,Gonzales,,,,,,Single-ply,SBD,M
Boys,,NS,Kyler Castillo,Cuero,,,,,,Single-ply,SBD,M
Boys,,NS,Moses Alaniz,Cuero,,,,,,Single-ply,SBD,M
Boys,,NS,Jason Vela,Cuero,,,,,,Single-ply,SBD,M
Boys,,NS,Coby Pruett,Gonzales,,,,,,Single-ply,SBD,M
Boys,,NS,Dalton Bills,Bellville,,,,,,Single-ply,SBD,M
Boys,,NS,Joseph Garamillo,Columbus,,,,,,Single-ply,SBD,M
Boys,,NS,Rylan Curlee,Columbus,,,,,,Single-ply,SBD,M
Boys,,NS,Michael Shannon,Hallettsville,,,,,,Single-ply,SBD,M
Boys,,NS,Corbin Klausmeyer,Columbus,,,,,,Single-ply,SBD,M
Boys,,NS,Nick Pavlicek,Columbus,,,,,,Single-ply,SBD,M
Boys,,NS,Caleb Edmonds,Hallettsville,,,,,,Single-ply,SBD,M
Boys,,NS,Jayden Gonzales,Hallettsville,,,,,,Single-ply,SBD,M
Boys,,NS,Dylan Crye,Hallettsville,,,,,,Single-ply,SBD,M
Boys,,NS,Tre Scott,La Grange,,,,,,Single-ply,SBD,M
Boys,,NS,Jesus Vasquez,Brookshire Royal,,,,,,Single-ply,SBD,M
Boys,,NS,Steve Espiricueta,Brookshire Royal,,,,,,Single-ply,SBD,M
Boys,,NS,Clayton Shroeder,Giddings,,,,,,Single-ply,SBD,M
Boys,,NS,Colten Dees,Giddings,,,,,,Single-ply,SBD,M
Boys,,NS,Easton Kyleberg,Giddings,,,,,,Single-ply,SBD,M
Boys,,NS,Woodrow Beltran,Giddings,,,,,,Single-ply,SBD,M
Boys,,NS,Mason Rosser,Giddings,,,,,,Single-ply,SBD,M
Boys,,NS,Chris Sanders,Smithville,,,,,,Single-ply,SBD,M
Boys,,NS,Niko Leza,Smithville,,,,,,Single-ply,SBD,M
Boys,,NS,Casey Marek,Bellville,,,,,,Single-ply,SBD,M
Boys,,NS,Osvaldo Duran,Hempstead,,,,,,Single-ply,SBD,M
