Division,WeightClassKg,Place,Name,Team,BodyweightKg,Best3SquatKg,Best3BenchKg,Best3DeadliftKg,TotalKg,Equipment,Event,Sex
Boys,51.71,1,Luke Longoria,Bay City,46.67,61.23,40.82,63.5,165.56,Single-ply,SBD,M
Boys,55.79,1,Jonathan Cardenas,Freeport Brazosport,52.48,154.22,97.52,156.49,408.23,Single-ply,SBD,M
Boys,55.79,2,Zane Havel,Bay City,55.52,124.74,65.77,122.47,312.98,Single-ply,SBD,M
Boys,55.79,3,Javier Chavarria,Conroe Oak Ridge,53.93,92.99,77.11,99.79,269.89,Single-ply,SBD,M
Boys,55.79,4,Brandon Parker #2,Livingston,55.66,83.91,61.23,102.06,247.21,Single-ply,SBD,M
Boys,59.87,1,Kaleb Wolfe,Bay City,58.69,151.95,86.18,161.03,399.16,Single-ply,SBD,M
Boys,59.87,2,Corry Scott,Livingston,58.79,92.99,61.23,97.52,251.74,Single-ply,SBD,M
Boys,67.13,1,Cameron Guillen,Clute Brazoswood,64.64,183.7,97.52,190.51,471.74,Single-ply,SBD,M
Boys,67.13,2,Gin Ivey,Conroe Oak Ridge,64.05,158.76,104.33,185.97,449.06,Single-ply,SBD,M
Boys,67.13,3,Jacory Joseph,Freeport Brazosport,65.82,174.63,92.99,161.03,428.64,Single-ply,SBD,M
Boys,67.13,4,Ismael Orduna,Livingston,66.09,167.83,83.91,167.83,419.57,Single-ply,SBD,M
Boys,67.13,5,Jonathan Pesina,Bay City,64.36,158.76,86.18,161.03,405.97,Single-ply,SBD,M
Boys,67.13,6,Jermaine Ellis,Freeport Brazosport,65.45,142.88,88.45,170.1,401.43,Single-ply,SBD,M
Boys,67.13,7,Edgar Benegas,Conroe,61.55,149.69,74.84,174.63,399.16,Single-ply,SBD,M
Boys,67.13,8,Daniel Cantu,Clute Brazoswood,65.27,124.74,65.77,158.76,349.27,Single-ply,SBD,M
Boys,67.13,9,Orlando Moreno,Bay City,61.42,120.2,65.77,136.08,322.05,Single-ply,SBD,M
Boys,67.13,10,Logan Forson,Freeport Brazosport,62.32,111.13,74.84,133.81,319.78,Single-ply,SBD,M
Boys,67.13,11,Joseph Martinez,Freeport Brazosport,63.28,117.93,63.5,138.35,319.78,Single-ply,SBD,M
Boys,74.84,1,Hampton Zarzour,Conroe,73.57,201.85,106.59,195.04,503.49,Single-ply,SBD,M
Boys,74.84,2,Zack Nieto,Freeport Brazosport,73.84,172.37,113.4,199.58,485.34,Single-ply,SBD,M
Boys,74.84,3,Uri Martinez,New Caney Porter,74.66,167.83,120.2,190.51,478.54,Single-ply,SBD,M
Boys,74.84,4,Devante Stafford,Freeport Brazosport,72.71,174.63,115.67,174.63,464.93,Single-ply,SBD,M
Boys,74.84,5,Jared Hope,Livingston,72.17,151.95,95.25,199.58,446.79,Single-ply,SBD,M
Boys,74.84,6,Tim Clay,New Caney Porter,74.84,161.03,104.33,163.29,428.64,Single-ply,SBD,M
Boys,74.84,7,William Broussard,Livingston,73.62,156.49,81.65,181.44,419.57,Single-ply,SBD,M
Boys,74.84,8,Cole Cruz,Conroe Oak Ridge,74.53,138.35,88.45,158.76,385.55,Single-ply,SBD,M
Boys,82.1,1,Adrian Aluiso,Freeport Brazosport,81.83,181.44,99.79,197.31,478.54,Single-ply,SBD,M
Boys,82.1,2,Dakota Piper,Livingston,81.83,170.1,124.74,165.56,460.4,Single-ply,SBD,M
Boys,82.1,3,Blake Jackson,Conroe Oak Ridge,82.1,142.88,95.25,172.37,410.5,Single-ply,SBD,M
Boys,82.1,4,Cane Placker,Livingston,79.29,138.35,83.91,124.74,347,Single-ply,SBD,M
Boys,89.81,1,Dylan Bates,Conroe Oak Ridge,87.23,235.87,151.95,235.87,623.69,Single-ply,SBD,M
Boys,89.81,2,Kyle Haynes,Livingston,88.99,208.65,142.88,215.46,566.99,Single-ply,SBD,M
Boys,89.81,3,Uri Lujan,Conroe,88.68,226.8,115.67,215.46,557.92,Single-ply,SBD,M
Boys,89.81,4,Jorge Carli,Bay City,83.64,226.8,117.93,201.85,546.58,Single-ply,SBD,M
Boys,89.81,5,Antonio Ruff,Bay City,85.32,183.7,154.22,195.04,532.97,Single-ply,SBD,M
Boys,89.81,6,Brennan Young,Conroe Oak Ridge,86.18,183.7,102.06,192.78,478.54,Single-ply,SBD,M
Boys,89.81,7,Chris Clausen,Livingston,89.77,183.7,108.86,167.83,460.4,Single-ply,SBD,M
Boys,89.81,8,Zachary Hejtmancic,Conroe Oak Ridge,89.68,161.03,99.79,183.7,444.52,Single-ply,SBD,M
Boys,89.81,9,Cody Ross,Livingston,83.73,147.42,83.91,165.56,396.89,Single-ply,SBD,M
Boys,99.79,1,Roy Kelley,Conroe,97.39,294.84,136.08,267.62,698.53,Single-ply,SBD,M
Boys,99.79,2,Richy Ortiz,Bay City,99.79,249.48,167.83,260.82,678.12,Single-ply,SBD,M
Boys,99.79,3,Gavin Franklin,Conroe Oak Ridge,98.29,213.19,151.95,235.87,601.01,Single-ply,SBD,M
Boys,99.79,4,Adrian Ruiz,Bay City,93.67,226.8,172.37,188.24,587.4,Single-ply,SBD,M
Boys,99.79,5,Kolin Seward,Livingston,98.38,247.21,115.67,204.12,566.99,Single-ply,SBD,M
Boys,99.79,6,Danny Marquez,Freeport Brazosport,95.89,195.04,151.95,199.58,546.58,Single-ply,SBD,M
Boys,99.79,7,Alejandro Rodriguez,New Caney Porter,95.66,199.58,138.35,185.97,523.9,Single-ply,SBD,M
Boys,99.79,8,Travis Null,Conroe,97.39,206.38,117.93,192.78,517.1,Single-ply,SBD,M
Boys,99.79,9,Chance Hodgekinson,New Caney Porter,96.66,199.58,129.27,172.37,501.22,Single-ply,SBD,M
Boys,99.79,10,Elfonso Muniz-Vargas,Clute Brazoswood,96.43,183.7,124.74,183.7,492.15,Single-ply,SBD,M
Boys,99.79,11,Cameron Easley,New Caney Porter,92.03,149.69,129.27,185.97,464.93,Single-ply,SBD,M
Boys,109.77,1,Prince Flye,Bay City,108.05,238.14,142.88,235.87,616.89,Single-ply,SBD,M
Boys,109.77,2,Contrell Green,Conroe Oak Ridge,106.55,217.72,136.08,229.06,582.87,Single-ply,SBD,M
Boys,109.77,3,Cameron Providence,New Caney Porter,108.73,226.8,129.27,226.8,582.87,Single-ply,SBD,M
Boys,109.77,4,Taylor Grice,New Caney Porter,101.2,181.44,136.08,195.04,512.56,Single-ply,SBD,M
Boys,109.77,5,Caleb Johnson,New Caney Porter,108.09,199.58,131.54,181.44,512.56,Single-ply,SBD,M
Boys,109.77,6,Tyler Danford,Clute Brazoswood,107.18,219.99,97.52,192.78,510.29,Single-ply,SBD,M
Boys,109.77,7,Fidel Rodriguez,Bay City,103.83,197.31,115.67,195.04,508.02,Single-ply,SBD,M
Boys,109.77,8,Zach Battle,Bay City,100.02,185.97,97.52,190.51,474,Single-ply,SBD,M
Boys,109.77,9,Alandrus Peterson,Clute Brazoswood,109.72,151.95,104.33,188.24,444.52,Single-ply,SBD,M
Boys,109.77,10,Orlando Zamarripa,Bay City,103.78,142.88,70.31,167.83,381.02,Single-ply,SBD,M
Boys,109.77,11,Forest Foresman,Livingston,101.42,147.42,77.11,136.08,360.61,Single-ply,SBD,M
Boys,124.74,1,Victor Guevara,Freeport Brazosport,120.25,303.91,185.97,256.28,746.16,Single-ply,SBD,M
Boys,124.74,2,Santos Lazos,Clute Brazoswood,124.38,219.99,131.54,226.8,578.33,Single-ply,SBD,M
Boys,124.74,3,Darius Lloyd,Conroe,124.74,226.8,129.27,219.99,576.06,Single-ply,SBD,M
Boys,124.74,4,Paul Guevara,Clute Brazoswood,116.12,224.53,147.42,199.58,571.53,Single-ply,SBD,M
Boys,124.74,5,Luke MacLennan,Bay City,115.67,219.99,142.88,199.58,562.45,Single-ply,SBD,M
Boys,124.74,6,Victor Esquivel,Clute Brazoswood,122.2,215.46,131.54,201.85,548.85,Single-ply,SBD,M
Boys,124.74,7,Antonio Williams,Freeport Brazosport,120.07,213.19,122.47,208.65,544.31,Single-ply,SBD,M
Boys,124.74,8,Kollin Beyer,New Caney Porter,116.94,226.8,122.47,181.44,530.7,Single-ply,SBD,M
Boys,124.74,9,Max Joiner,Conroe,113.85,226.8,131.54,170.1,528.44,Single-ply,SBD,M
Boys,124.74,10,CJ Bench,Clute Brazoswood,117.16,206.38,122.47,185.97,514.83,Single-ply,SBD,M
Boys,124.74,11,Jacob Bryant,Conroe,120.75,208.65,122.47,174.63,505.76,Single-ply,SBD,M
Boys,124.74,12,Gilberto Chavez,Freeport Brazosport,118.21,190.51,106.59,183.7,480.81,Single-ply,SBD,M
Boys,124.74,13,James Burns,New Caney Porter,115.12,183.7,122.47,167.83,474,Single-ply,SBD,M
Boys,124.74,14,Mario Rodriguez #2,New Caney Porter,121.65,172.37,106.59,170.1,449.06,Single-ply,SBD,M
Boys,124.74,15,Tyler Johnson,Conroe Oak Ridge,121.88,154.22,108.86,183.7,446.79,Single-ply,SBD,M
Boys,124.74,16,Casey Duhon,Conroe Oak Ridge,118.25,165.56,97.52,158.76,421.84,Single-ply,SBD,M
Boys,124.74,17,Garrett Goodson,Livingston,117.89,142.88,70.31,172.37,385.55,Single-ply,SBD,M
Boys,124.74,18,Robert Grimes,Livingston,114.89,111.13,79.38,124.74,315.25,Single-ply,SBD,M
Boys,124.74+,1,Terry Carter,Livingston,148.19,276.69,151.95,272.16,700.8,Single-ply,SBD,M
Boys,124.74+,2,Darius Carter,Conroe,146.78,233.6,145.15,208.65,587.4,Single-ply,SBD,M
Boys,124.74+,3,Billy Dobbin,Livingston,128.37,206.38,106.59,201.85,514.83,Single-ply,SBD,M
