Division,WeightClassKg,Place,Name,Team,BodyweightKg,Best3SquatKg,Best3BenchKg,Best3DeadliftKg,TotalKg,Equipment,Event,Sex
Girls,44.23,1,Jessica Garcia,Yorktown,44.23,97.52,45.36,95.25,238.14,Single-ply,SBD,F
Girls,44.23,2,Vanessa Garza,Yoakum,41.96,52.16,24.95,54.43,131.54,Single-ply,SBD,F
Girls,47.85,1,Alexis Longoria,Yorktown,47.85,117.93,45.36,102.06,265.35,Single-ply,SBD,F
Girls,47.85,2,Kesney Dunlevy,Ingleside,47.17,97.52,38.56,99.79,235.87,Single-ply,SBD,F
Girls,47.85,3,Marissa Rios,Runge,47.63,77.11,40.82,95.25,213.19,Single-ply,SBD,F
Girls,47.85,4,Abril Lazaro,Ingleside,47.63,83.91,38.56,79.38,201.85,Single-ply,SBD,F
Girls,47.85,5,Noelle Biddle,Goliad,46.74,47.63,36.29,49.9,133.81,Single-ply,SBD,F
Girls,47.85,6,Olivia Anderson,Cuero,44.91,47.63,22.68,49.9,120.2,Single-ply,SBD,F
Girls,51.94,1,Aubrey Williamson,Goliad,50.8,86.18,38.56,72.57,197.31,Single-ply,SBD,F
Girls,51.94,2,Lauryn Brynelsen,Runge,51.71,86.18,27.22,81.65,195.04,Single-ply,SBD,F
Girls,51.94,3,Mikayla Williams,Yorktown,50.12,70.31,34.02,81.65,185.97,Single-ply,SBD,F
Girls,56.02,1,Viviana Hernandez,Goliad,54.88,120.2,56.7,129.27,306.17,Single-ply,SBD,F
Girls,56.02,2,Serenity Alaniz,Karnes City,55.11,127.01,52.16,115.67,294.84,Single-ply,SBD,F
Girls,56.02,3,Robin Naranjo,Yorktown,52.39,115.67,52.16,115.67,283.5,Single-ply,SBD,F
Girls,56.02,4,Zoey Cappleman,Ingleside,55.57,111.13,52.16,115.67,278.96,Single-ply,SBD,F
Girls,56.02,5,Alyssa DeLuna,Gonzales,55.57,106.59,40.82,111.13,258.55,Single-ply,SBD,F
Girls,56.02,6,Miranda DeLeon,Ingleside,55.34,102.06,47.63,92.99,242.67,Single-ply,SBD,F
Girls,56.02,7,Alexis Alvarez,Goliad,55.34,79.38,49.9,88.45,217.72,Single-ply,SBD,F
Girls,56.02,8,Alexa Carbajal,Karnes City,53.98,77.11,38.56,90.72,206.38,Single-ply,SBD,F
Girls,60.1,1,Brooke Gisler,Karnes City,59.19,120.2,56.7,108.86,285.76,Single-ply,SBD,F
Girls,60.1,2,Melyna Torres,Yoakum,60.1,108.86,34.02,122.47,265.35,Single-ply,SBD,F
Girls,60.1,3,Telleah Jackson,Goliad,56.93,108.86,45.36,108.86,263.08,Single-ply,SBD,F
Girls,60.1,4,Audrey Rodriguez,Ingleside,59.65,104.33,47.63,97.52,249.48,Single-ply,SBD,F
Girls,60.1,5,Aimsley Blank,Yorktown,58.06,97.52,45.36,102.06,244.94,Single-ply,SBD,F
Girls,60.1,6,Chantal Cerda,Ingleside,59.42,86.18,36.29,104.33,226.8,Single-ply,SBD,F
Girls,60.1,7,Naomi Mendoza,Runge,59.65,81.65,36.29,92.99,210.92,Single-ply,SBD,F
Girls,60.1,8,Christiana Romero,Ingleside,58.51,63.5,34.02,79.38,176.9,Single-ply,SBD,F
Girls,60.1,DQ,Ana Lopez,Karnes City,58.74,,,,,Single-ply,SBD,F
Girls,67.36,1,Kayci Molina,Runge,64.41,136.08,61.23,142.88,340.19,Single-ply,SBD,F
Girls,67.36,2,Lee Ramirez,Karnes City,66.68,129.27,63.5,120.2,312.98,Single-ply,SBD,F
Girls,67.36,3,Tori Garcia,Victoria West,66.22,113.4,65.77,124.74,303.91,Single-ply,SBD,F
Girls,67.36,4,Lauryn Campos,Yorktown,63.73,117.93,45.36,136.08,299.37,Single-ply,SBD,F
Girls,67.36,5,Kierra Duhart,Ingleside,66.68,117.93,49.9,122.47,290.3,Single-ply,SBD,F
Girls,67.36,6,Mary Ruff,Ingleside,65.77,104.33,45.36,124.74,274.42,Single-ply,SBD,F
Girls,67.36,7,Madison Barton,Victoria St. Joseph,62.37,106.59,40.82,117.93,265.35,Single-ply,SBD,F
Girls,67.36,8,Estefania Cervantes,Yorktown,67.36,70.31,27.22,90.72,188.24,Single-ply,SBD,F
Girls,67.36,9,Christiana Cuellar,Goliad,65.32,63.5,34.02,74.84,172.37,Single-ply,SBD,F
Girls,67.36,DQ,Desalyn Eldridge,Cuero,65.54,88.45,45.36,,,Single-ply,SBD,F
Girls,67.36,DQ,Paige Nance,Yorktown,61.23,120.2,,,,Single-ply,SBD,F
Girls,75.07,1,Jenae Pena,Ingleside,69.4,104.33,54.43,106.59,265.35,Single-ply,SBD,F
Girls,75.07,2,Maddison Longoria,Victoria St. Joseph,73.48,102.06,52.16,108.86,263.08,Single-ply,SBD,F
Girls,75.07,3,Allison Dentler,Victoria West,71.89,113.4,52.16,79.38,244.94,Single-ply,SBD,F
Girls,75.07,4,Hailey Smith,Cuero,74.84,65.77,34.02,63.5,163.29,Single-ply,SBD,F
Girls,75.07,NS,Analicia Villarreal,Ingleside,,,,,,Single-ply,SBD,F
Girls,82.33,1,Jasmine Martinez,Aransas Pass,79.38,120.2,47.63,120.2,288.03,Single-ply,SBD,F
Girls,82.33,2,Gabby Gonzales,Victoria St. Joseph,79.83,113.4,52.16,111.13,276.69,Single-ply,SBD,F
Girls,82.33,3,Alexis Rodriguez #2,Victoria West,78.24,102.06,40.82,127.01,269.89,Single-ply,SBD,F
Girls,82.33,4,Miricle Glover,Cuero,80.97,95.25,45.36,120.2,260.82,Single-ply,SBD,F
Girls,82.33,5,Joclin Agnew,Ingleside,81.65,102.06,45.36,113.4,260.82,Single-ply,SBD,F
Girls,82.33,6,Kamryn Gutierrez,Runge,82.1,104.33,43.09,99.79,247.21,Single-ply,SBD,F
Girls,82.33,7,Bridget Cruz,Aransas Pass,78.02,79.38,38.56,90.72,208.65,Single-ply,SBD,F
Girls,82.33,8,Karlee Lawson,Victoria West,76.66,72.57,34.02,79.38,185.97,Single-ply,SBD,F
Girls,82.33,DQ,Rebecca Morgan,Victoria West,80.74,79.38,,,,Single-ply,SBD,F
Girls,90.04,1,Crystal Garcia,Gonzales,83.23,147.42,65.77,149.69,362.87,Single-ply,SBD,F
Girls,90.04,2,Olivia Monsevais,Karnes City,88.22,138.35,72.57,136.08,347,Single-ply,SBD,F
Girls,90.04,3,Ariel Rocha,Yoakum,86.86,127.01,63.5,127.01,317.51,Single-ply,SBD,F
Girls,90.04,4,Graycee Gonzales,Gonzales,86.64,83.91,43.09,104.33,231.33,Single-ply,SBD,F
Girls,90.04,5,Kayla Alvarado,Yoakum,89.13,79.38,47.63,92.99,219.99,Single-ply,SBD,F
Girls,90.04,DQ,Sarah Simon,Cuero,89.13,,,,,Single-ply,SBD,F
Girls,100.02,1,Morgan Gale,Cuero,91.85,145.15,68.04,149.69,362.87,Single-ply,SBD,F
Girls,100.02,2,Kaci Rael,Victoria St. Joseph,95.93,142.88,74.84,129.27,347,Single-ply,SBD,F
Girls,100.02,3,Gabby Moreno,Runge,95.93,122.47,56.7,127.01,306.17,Single-ply,SBD,F
Girls,100.02,4,Kensly Ley,Cuero,97.52,124.74,52.16,127.01,303.91,Single-ply,SBD,F
Girls,100.02,5,Sadie Tristan,Karnes City,96.84,97.52,38.56,97.52,233.6,Single-ply,SBD,F
Girls,100.02,DQ,Breann Garza,Yoakum,92.76,158.76,65.77,,,Single-ply,SBD,F
Girls,117.71,1,Alayna Searcy,Cuero,108.86,176.9,56.7,129.27,362.87,Single-ply,SBD,F
Girls,117.71,2,Esmeralda Rojas,Yoakum,103.42,142.88,54.43,136.08,333.39,Single-ply,SBD,F
Girls,117.71,3,Sydney Clack,Gonzales,105.69,136.08,52.16,136.08,324.32,Single-ply,SBD,F
Girls,117.71,4,Katelyn Olguin,Victoria West,100.7,127.01,65.77,122.47,315.25,Single-ply,SBD,F
Girls,117.71,5,Celine Alaniz,Victoria West,107.95,61.23,43.09,74.84,179.17,Single-ply,SBD,F
Girls,117.71+,1,Aunriette Davis,Goliad,135.17,136.08,86.18,145.15,367.41,Single-ply,SBD,F
Girls,117.71+,2,Aracely Nieto,George West,124.96,113.4,58.97,145.15,317.51,Single-ply,SBD,F
